# vxsh-suite CD & archival application research

Ideas and ramblings related to either v-disk or KaijuTrack will be stored here


---

:: cr. 2023-05-22T06:54:47Z
;      1684738487
:: t.  Research
:: t.  vdisk-research
; topic 0, entry 0
